﻿#############################################
# DEMD Population System
# by Vertimnus
# This file was compiled by a machine from jomini metascript source code.
# It should never be manually edited.
#############################################

yearly_global_pulse = {
	events = {
		demd_meta_population.0001
		demd_meta_population.1001
	}
}
yearly_global_pulse = {
	events = {
		delay = { days = 1 }
		demd_meta_population.0002
		demd_meta_population.1002
	}
}
yearly_global_pulse = {
	events = {
		delay = { days = 2 }
		demd_meta_population.0003
		demd_meta_population.1003
	}
}
yearly_global_pulse = {
	events = {
		delay = { days = 3 }
		demd_meta_population.0004
		demd_meta_population.1004
	}
}
yearly_global_pulse = {
	events = {
		delay = { days = 4 }
		demd_meta_population.0005
		demd_meta_population.1005
	}
}
yearly_global_pulse = {
	events = {
		delay = { days = 5 }
		demd_meta_population.0006
		demd_meta_population.1006
	}
}
yearly_global_pulse = {
	events = {
		delay = { days = 6 }
		demd_meta_population.0007
		demd_meta_population.1007
	}
}
yearly_global_pulse = {
	events = {
		delay = { days = 7 }
		demd_meta_population.0008
		demd_meta_population.1008
	}
}
yearly_global_pulse = {
	events = {
		delay = { days = 8 }
		demd_meta_population.0009
		demd_meta_population.1009
	}
}
yearly_global_pulse = {
	events = {
		delay = { days = 9 }
		demd_meta_population.0010
		demd_meta_population.1010
	}
}
yearly_global_pulse = {
	events = {
		delay = { days = 10 }
		demd_meta_population.0011
		demd_meta_population.1011
	}
}
yearly_global_pulse = {
	events = {
		delay = { days = 11 }
		demd_meta_population.0012
		demd_meta_population.1012
	}
}
yearly_global_pulse = {
	events = {
		delay = { days = 12 }
		demd_meta_population.0013
		demd_meta_population.1013
	}
}
yearly_global_pulse = {
	events = {
		delay = { days = 13 }
		demd_meta_population.0014
		demd_meta_population.1014
	}
}
yearly_global_pulse = {
	events = {
		delay = { days = 14 }
		demd_meta_population.0015
		demd_meta_population.1015
	}
}
yearly_global_pulse = {
	events = {
		delay = { days = 15 }
		demd_meta_population.0016
		demd_meta_population.1016
	}
}
yearly_global_pulse = {
	events = {
		delay = { days = 16 }
		demd_meta_population.0017
		demd_meta_population.1017
	}
}
yearly_global_pulse = {
	events = {
		delay = { days = 17 }
		demd_meta_population.0018
		demd_meta_population.1018
	}
}
yearly_global_pulse = {
	events = {
		delay = { days = 18 }
		demd_meta_population.0019
		demd_meta_population.1019
	}
}
yearly_global_pulse = {
	events = {
		delay = { days = 19 }
		demd_meta_population.0020
		demd_meta_population.1020
	}
}
yearly_global_pulse = {
	events = {
		delay = { days = 20 }
		demd_meta_population.0021
		demd_meta_population.1021
	}
}
yearly_global_pulse = {
	events = {
		delay = { days = 21 }
		demd_meta_population.0022
		demd_meta_population.1022
	}
}
yearly_global_pulse = {
	events = {
		delay = { days = 22 }
		demd_meta_population.0023
		demd_meta_population.1023
	}
}
yearly_global_pulse = {
	events = {
		delay = { days = 23 }
		demd_meta_population.0024
		demd_meta_population.1024
	}
}
yearly_global_pulse = {
	events = {
		delay = { days = 24 }
		demd_meta_population.0025
		demd_meta_population.1025
	}
}
yearly_global_pulse = {
	events = {
		delay = { days = 25 }
		demd_meta_population.0026
		demd_meta_population.1026
	}
}
yearly_global_pulse = {
	events = {
		delay = { days = 26 }
		demd_meta_population.0027
		demd_meta_population.1027
	}
}
yearly_global_pulse = {
	events = {
		delay = { days = 27 }
		demd_meta_population.0028
		demd_meta_population.1028
	}
}
yearly_global_pulse = {
	events = {
		delay = { days = 28 }
		demd_meta_population.0029
		demd_meta_population.1029
	}
}
yearly_global_pulse = {
	events = {
		delay = { days = 29 }
		demd_meta_population.0030
		demd_meta_population.1030
	}
}
yearly_global_pulse = {
	events = {
		delay = { days = 30 }
		demd_meta_population.0031
		demd_meta_population.1001
	}
}
yearly_global_pulse = {
	events = {
		delay = { days = 31 }
		demd_meta_population.0032
		demd_meta_population.1002
	}
}
yearly_global_pulse = {
	events = {
		delay = { days = 32 }
		demd_meta_population.0033
		demd_meta_population.1003
	}
}
yearly_global_pulse = {
	events = {
		delay = { days = 33 }
		demd_meta_population.0034
		demd_meta_population.1004
	}
}
yearly_global_pulse = {
	events = {
		delay = { days = 34 }
		demd_meta_population.0035
		demd_meta_population.1005
	}
}
yearly_global_pulse = {
	events = {
		delay = { days = 35 }
		demd_meta_population.0036
		demd_meta_population.1006
	}
}
yearly_global_pulse = {
	events = {
		delay = { days = 36 }
		demd_meta_population.0037
		demd_meta_population.1007
	}
}
yearly_global_pulse = {
	events = {
		delay = { days = 37 }
		demd_meta_population.0038
		demd_meta_population.1008
	}
}
yearly_global_pulse = {
	events = {
		delay = { days = 38 }
		demd_meta_population.0039
		demd_meta_population.1009
	}
}
yearly_global_pulse = {
	events = {
		delay = { days = 39 }
		demd_meta_population.0040
		demd_meta_population.1010
	}
}
yearly_global_pulse = {
	events = {
		delay = { days = 40 }
		demd_meta_population.0041
		demd_meta_population.1011
	}
}
yearly_global_pulse = {
	events = {
		delay = { days = 41 }
		demd_meta_population.0042
		demd_meta_population.1012
	}
}
yearly_global_pulse = {
	events = {
		delay = { days = 42 }
		demd_meta_population.0043
		demd_meta_population.1013
	}
}
yearly_global_pulse = {
	events = {
		delay = { days = 43 }
		demd_meta_population.0044
		demd_meta_population.1014
	}
}
yearly_global_pulse = {
	events = {
		delay = { days = 44 }
		demd_meta_population.0045
		demd_meta_population.1015
	}
}
yearly_global_pulse = {
	events = {
		delay = { days = 45 }
		demd_meta_population.0046
		demd_meta_population.1016
	}
}
yearly_global_pulse = {
	events = {
		delay = { days = 46 }
		demd_meta_population.0047
		demd_meta_population.1017
	}
}
yearly_global_pulse = {
	events = {
		delay = { days = 47 }
		demd_meta_population.0048
		demd_meta_population.1018
	}
}
yearly_global_pulse = {
	events = {
		delay = { days = 48 }
		demd_meta_population.0049
		demd_meta_population.1019
	}
}
yearly_global_pulse = {
	events = {
		delay = { days = 49 }
		demd_meta_population.0050
		demd_meta_population.1020
	}
}
yearly_global_pulse = {
	events = {
		delay = { days = 50 }
		demd_meta_population.0051
		demd_meta_population.1021
	}
}
yearly_global_pulse = {
	events = {
		delay = { days = 51 }
		demd_meta_population.0052
		demd_meta_population.1022
	}
}
yearly_global_pulse = {
	events = {
		delay = { days = 52 }
		demd_meta_population.0053
		demd_meta_population.1023
	}
}
yearly_global_pulse = {
	events = {
		delay = { days = 53 }
		demd_meta_population.0054
		demd_meta_population.1024
	}
}
yearly_global_pulse = {
	events = {
		delay = { days = 54 }
		demd_meta_population.0055
		demd_meta_population.1025
	}
}
yearly_global_pulse = {
	events = {
		delay = { days = 55 }
		demd_meta_population.0056
		demd_meta_population.1026
	}
}
yearly_global_pulse = {
	events = {
		delay = { days = 56 }
		demd_meta_population.0057
		demd_meta_population.1027
	}
}
yearly_global_pulse = {
	events = {
		delay = { days = 57 }
		demd_meta_population.0058
		demd_meta_population.1028
	}
}
yearly_global_pulse = {
	events = {
		delay = { days = 58 }
		demd_meta_population.0059
		demd_meta_population.1029
	}
}
yearly_global_pulse = {
	events = {
		delay = { days = 59 }
		demd_meta_population.0060
		demd_meta_population.1030
	}
}
yearly_global_pulse = {
	events = {
		delay = { days = 60 }
		demd_meta_population.0061
		demd_meta_population.1001
	}
}
yearly_global_pulse = {
	events = {
		delay = { days = 61 }
		demd_meta_population.0062
		demd_meta_population.1002
	}
}
yearly_global_pulse = {
	events = {
		delay = { days = 62 }
		demd_meta_population.0063
		demd_meta_population.1003
	}
}
yearly_global_pulse = {
	events = {
		delay = { days = 63 }
		demd_meta_population.0064
		demd_meta_population.1004
	}
}
yearly_global_pulse = {
	events = {
		delay = { days = 64 }
		demd_meta_population.0065
		demd_meta_population.1005
	}
}
yearly_global_pulse = {
	events = {
		delay = { days = 65 }
		demd_meta_population.0066
		demd_meta_population.1006
	}
}
yearly_global_pulse = {
	events = {
		delay = { days = 66 }
		demd_meta_population.0067
		demd_meta_population.1007
	}
}
yearly_global_pulse = {
	events = {
		delay = { days = 67 }
		demd_meta_population.0068
		demd_meta_population.1008
	}
}
yearly_global_pulse = {
	events = {
		delay = { days = 68 }
		demd_meta_population.0069
		demd_meta_population.1009
	}
}
yearly_global_pulse = {
	events = {
		delay = { days = 69 }
		demd_meta_population.0070
		demd_meta_population.1010
	}
}
yearly_global_pulse = {
	events = {
		delay = { days = 70 }
		demd_meta_population.0071
		demd_meta_population.1011
	}
}
yearly_global_pulse = {
	events = {
		delay = { days = 71 }
		demd_meta_population.0072
		demd_meta_population.1012
	}
}
yearly_global_pulse = {
	events = {
		delay = { days = 72 }
		demd_meta_population.0073
		demd_meta_population.1013
	}
}
yearly_global_pulse = {
	events = {
		delay = { days = 73 }
		demd_meta_population.0074
		demd_meta_population.1014
	}
}
yearly_global_pulse = {
	events = {
		delay = { days = 74 }
		demd_meta_population.0075
		demd_meta_population.1015
	}
}
yearly_global_pulse = {
	events = {
		delay = { days = 75 }
		demd_meta_population.0076
		demd_meta_population.1016
	}
}
yearly_global_pulse = {
	events = {
		delay = { days = 76 }
		demd_meta_population.0077
		demd_meta_population.1017
	}
}
yearly_global_pulse = {
	events = {
		delay = { days = 77 }
		demd_meta_population.0078
		demd_meta_population.1018
	}
}
yearly_global_pulse = {
	events = {
		delay = { days = 78 }
		demd_meta_population.0079
		demd_meta_population.1019
	}
}
yearly_global_pulse = {
	events = {
		delay = { days = 79 }
		demd_meta_population.0080
		demd_meta_population.1020
	}
}
yearly_global_pulse = {
	events = {
		delay = { days = 80 }
		demd_meta_population.0081
		demd_meta_population.1021
	}
}
yearly_global_pulse = {
	events = {
		delay = { days = 81 }
		demd_meta_population.0082
		demd_meta_population.1022
	}
}
yearly_global_pulse = {
	events = {
		delay = { days = 82 }
		demd_meta_population.0083
		demd_meta_population.1023
	}
}
yearly_global_pulse = {
	events = {
		delay = { days = 83 }
		demd_meta_population.0084
		demd_meta_population.1024
	}
}
yearly_global_pulse = {
	events = {
		delay = { days = 84 }
		demd_meta_population.0085
		demd_meta_population.1025
	}
}
yearly_global_pulse = {
	events = {
		delay = { days = 85 }
		demd_meta_population.0086
		demd_meta_population.1026
	}
}
yearly_global_pulse = {
	events = {
		delay = { days = 86 }
		demd_meta_population.0087
		demd_meta_population.1027
	}
}
yearly_global_pulse = {
	events = {
		delay = { days = 87 }
		demd_meta_population.0088
		demd_meta_population.1028
	}
}
yearly_global_pulse = {
	events = {
		delay = { days = 88 }
		demd_meta_population.0089
		demd_meta_population.1029
	}
}
yearly_global_pulse = {
	events = {
		delay = { days = 89 }
		demd_meta_population.0090
		demd_meta_population.1030
	}
}
yearly_global_pulse = {
	events = {
		delay = { days = 90 }
		demd_meta_population.0091
		demd_meta_population.1001
	}
}
yearly_global_pulse = {
	events = {
		delay = { days = 91 }
		demd_meta_population.0092
		demd_meta_population.1002
	}
}
yearly_global_pulse = {
	events = {
		delay = { days = 92 }
		demd_meta_population.0093
		demd_meta_population.1003
	}
}
yearly_global_pulse = {
	events = {
		delay = { days = 93 }
		demd_meta_population.0094
		demd_meta_population.1004
	}
}
yearly_global_pulse = {
	events = {
		delay = { days = 94 }
		demd_meta_population.0095
		demd_meta_population.1005
	}
}
yearly_global_pulse = {
	events = {
		delay = { days = 95 }
		demd_meta_population.0096
		demd_meta_population.1006
	}
}
yearly_global_pulse = {
	events = {
		delay = { days = 96 }
		demd_meta_population.0097
		demd_meta_population.1007
	}
}
yearly_global_pulse = {
	events = {
		delay = { days = 97 }
		demd_meta_population.0098
		demd_meta_population.1008
	}
}
yearly_global_pulse = {
	events = {
		delay = { days = 98 }
		demd_meta_population.0099
		demd_meta_population.1009
	}
}
yearly_global_pulse = {
	events = {
		delay = { days = 99 }
		demd_meta_population.0100
		demd_meta_population.1010
	}
}
yearly_global_pulse = {
	events = {
		delay = { days = 100 }
		demd_meta_population.0101
		demd_meta_population.1011
	}
}
yearly_global_pulse = {
	events = {
		delay = { days = 101 }
		demd_meta_population.0102
		demd_meta_population.1012
	}
}
yearly_global_pulse = {
	events = {
		delay = { days = 102 }
		demd_meta_population.0103
		demd_meta_population.1013
	}
}
yearly_global_pulse = {
	events = {
		delay = { days = 103 }
		demd_meta_population.0104
		demd_meta_population.1014
	}
}
yearly_global_pulse = {
	events = {
		delay = { days = 104 }
		demd_meta_population.0105
		demd_meta_population.1015
	}
}
yearly_global_pulse = {
	events = {
		delay = { days = 105 }
		demd_meta_population.0106
		demd_meta_population.1016
	}
}
yearly_global_pulse = {
	events = {
		delay = { days = 106 }
		demd_meta_population.0107
		demd_meta_population.1017
	}
}
yearly_global_pulse = {
	events = {
		delay = { days = 107 }
		demd_meta_population.0108
		demd_meta_population.1018
	}
}
yearly_global_pulse = {
	events = {
		delay = { days = 108 }
		demd_meta_population.0109
		demd_meta_population.1019
	}
}
yearly_global_pulse = {
	events = {
		delay = { days = 109 }
		demd_meta_population.0110
		demd_meta_population.1020
	}
}
yearly_global_pulse = {
	events = {
		delay = { days = 110 }
		demd_meta_population.0111
		demd_meta_population.1021
	}
}
yearly_global_pulse = {
	events = {
		delay = { days = 111 }
		demd_meta_population.0112
		demd_meta_population.1022
	}
}
yearly_global_pulse = {
	events = {
		delay = { days = 112 }
		demd_meta_population.0113
		demd_meta_population.1023
	}
}
yearly_global_pulse = {
	events = {
		delay = { days = 113 }
		demd_meta_population.0114
		demd_meta_population.1024
	}
}
yearly_global_pulse = {
	events = {
		delay = { days = 114 }
		demd_meta_population.0115
		demd_meta_population.1025
	}
}
yearly_global_pulse = {
	events = {
		delay = { days = 115 }
		demd_meta_population.0116
		demd_meta_population.1026
	}
}
yearly_global_pulse = {
	events = {
		delay = { days = 116 }
		demd_meta_population.0117
		demd_meta_population.1027
	}
}
yearly_global_pulse = {
	events = {
		delay = { days = 117 }
		demd_meta_population.0118
		demd_meta_population.1028
	}
}
yearly_global_pulse = {
	events = {
		delay = { days = 118 }
		demd_meta_population.0119
		demd_meta_population.1029
	}
}
yearly_global_pulse = {
	events = {
		delay = { days = 119 }
		demd_meta_population.0120
		demd_meta_population.1030
	}
}
yearly_global_pulse = {
	events = {
		delay = { days = 120 }
		demd_meta_population.0121
		demd_meta_population.1001
	}
}
yearly_global_pulse = {
	events = {
		delay = { days = 121 }
		demd_meta_population.0122
		demd_meta_population.1002
	}
}
yearly_global_pulse = {
	events = {
		delay = { days = 122 }
		demd_meta_population.0123
		demd_meta_population.1003
	}
}
yearly_global_pulse = {
	events = {
		delay = { days = 123 }
		demd_meta_population.0124
		demd_meta_population.1004
	}
}
yearly_global_pulse = {
	events = {
		delay = { days = 124 }
		demd_meta_population.0125
		demd_meta_population.1005
	}
}
yearly_global_pulse = {
	events = {
		delay = { days = 125 }
		demd_meta_population.0126
		demd_meta_population.1006
	}
}
yearly_global_pulse = {
	events = {
		delay = { days = 126 }
		demd_meta_population.0127
		demd_meta_population.1007
	}
}
yearly_global_pulse = {
	events = {
		delay = { days = 127 }
		demd_meta_population.0128
		demd_meta_population.1008
	}
}
yearly_global_pulse = {
	events = {
		delay = { days = 128 }
		demd_meta_population.0129
		demd_meta_population.1009
	}
}
yearly_global_pulse = {
	events = {
		delay = { days = 129 }
		demd_meta_population.0130
		demd_meta_population.1010
	}
}
yearly_global_pulse = {
	events = {
		delay = { days = 130 }
		demd_meta_population.0131
		demd_meta_population.1011
	}
}
yearly_global_pulse = {
	events = {
		delay = { days = 131 }
		demd_meta_population.0132
		demd_meta_population.1012
	}
}
yearly_global_pulse = {
	events = {
		delay = { days = 132 }
		demd_meta_population.0133
		demd_meta_population.1013
	}
}
yearly_global_pulse = {
	events = {
		delay = { days = 133 }
		demd_meta_population.0134
		demd_meta_population.1014
	}
}
yearly_global_pulse = {
	events = {
		delay = { days = 134 }
		demd_meta_population.0135
		demd_meta_population.1015
	}
}
yearly_global_pulse = {
	events = {
		delay = { days = 135 }
		demd_meta_population.0136
		demd_meta_population.1016
	}
}
yearly_global_pulse = {
	events = {
		delay = { days = 136 }
		demd_meta_population.0137
		demd_meta_population.1017
	}
}
yearly_global_pulse = {
	events = {
		delay = { days = 137 }
		demd_meta_population.0138
		demd_meta_population.1018
	}
}
yearly_global_pulse = {
	events = {
		delay = { days = 138 }
		demd_meta_population.0139
		demd_meta_population.1019
	}
}
yearly_global_pulse = {
	events = {
		delay = { days = 139 }
		demd_meta_population.0140
		demd_meta_population.1020
	}
}
yearly_global_pulse = {
	events = {
		delay = { days = 140 }
		demd_meta_population.0141
		demd_meta_population.1021
	}
}
yearly_global_pulse = {
	events = {
		delay = { days = 141 }
		demd_meta_population.0142
		demd_meta_population.1022
	}
}
yearly_global_pulse = {
	events = {
		delay = { days = 142 }
		demd_meta_population.0143
		demd_meta_population.1023
	}
}
yearly_global_pulse = {
	events = {
		delay = { days = 143 }
		demd_meta_population.0144
		demd_meta_population.1024
	}
}
yearly_global_pulse = {
	events = {
		delay = { days = 144 }
		demd_meta_population.0145
		demd_meta_population.1025
	}
}
yearly_global_pulse = {
	events = {
		delay = { days = 145 }
		demd_meta_population.0146
		demd_meta_population.1026
	}
}
yearly_global_pulse = {
	events = {
		delay = { days = 146 }
		demd_meta_population.0147
		demd_meta_population.1027
	}
}
yearly_global_pulse = {
	events = {
		delay = { days = 147 }
		demd_meta_population.0148
		demd_meta_population.1028
	}
}
yearly_global_pulse = {
	events = {
		delay = { days = 148 }
		demd_meta_population.0149
		demd_meta_population.1029
	}
}
yearly_global_pulse = {
	events = {
		delay = { days = 149 }
		demd_meta_population.0150
		demd_meta_population.1030
	}
}
yearly_global_pulse = {
	events = {
		delay = { days = 150 }
		demd_meta_population.0151
		demd_meta_population.1001
	}
}
yearly_global_pulse = {
	events = {
		delay = { days = 151 }
		demd_meta_population.0152
		demd_meta_population.1002
	}
}
yearly_global_pulse = {
	events = {
		delay = { days = 152 }
		demd_meta_population.0153
		demd_meta_population.1003
	}
}
yearly_global_pulse = {
	events = {
		delay = { days = 153 }
		demd_meta_population.0154
		demd_meta_population.1004
	}
}
yearly_global_pulse = {
	events = {
		delay = { days = 154 }
		demd_meta_population.0155
		demd_meta_population.1005
	}
}
yearly_global_pulse = {
	events = {
		delay = { days = 155 }
		demd_meta_population.0156
		demd_meta_population.1006
	}
}
yearly_global_pulse = {
	events = {
		delay = { days = 156 }
		demd_meta_population.0157
		demd_meta_population.1007
	}
}
yearly_global_pulse = {
	events = {
		delay = { days = 157 }
		demd_meta_population.0158
		demd_meta_population.1008
	}
}
yearly_global_pulse = {
	events = {
		delay = { days = 158 }
		demd_meta_population.0159
		demd_meta_population.1009
	}
}
yearly_global_pulse = {
	events = {
		delay = { days = 159 }
		demd_meta_population.0160
		demd_meta_population.1010
	}
}
yearly_global_pulse = {
	events = {
		delay = { days = 160 }
		demd_meta_population.0161
		demd_meta_population.1011
	}
}
yearly_global_pulse = {
	events = {
		delay = { days = 161 }
		demd_meta_population.0162
		demd_meta_population.1012
	}
}
yearly_global_pulse = {
	events = {
		delay = { days = 162 }
		demd_meta_population.0163
		demd_meta_population.1013
	}
}
yearly_global_pulse = {
	events = {
		delay = { days = 163 }
		demd_meta_population.0164
		demd_meta_population.1014
	}
}
yearly_global_pulse = {
	events = {
		delay = { days = 164 }
		demd_meta_population.0165
		demd_meta_population.1015
	}
}
yearly_global_pulse = {
	events = {
		delay = { days = 165 }
		demd_meta_population.0166
		demd_meta_population.1016
	}
}
yearly_global_pulse = {
	events = {
		delay = { days = 166 }
		demd_meta_population.0167
		demd_meta_population.1017
	}
}
yearly_global_pulse = {
	events = {
		delay = { days = 167 }
		demd_meta_population.0168
		demd_meta_population.1018
	}
}
yearly_global_pulse = {
	events = {
		delay = { days = 168 }
		demd_meta_population.0169
		demd_meta_population.1019
	}
}
yearly_global_pulse = {
	events = {
		delay = { days = 169 }
		demd_meta_population.0170
		demd_meta_population.1020
	}
}
yearly_global_pulse = {
	events = {
		delay = { days = 170 }
		demd_meta_population.0171
		demd_meta_population.1021
	}
}
yearly_global_pulse = {
	events = {
		delay = { days = 171 }
		demd_meta_population.0172
		demd_meta_population.1022
	}
}
yearly_global_pulse = {
	events = {
		delay = { days = 172 }
		demd_meta_population.0173
		demd_meta_population.1023
	}
}
yearly_global_pulse = {
	events = {
		delay = { days = 173 }
		demd_meta_population.0174
		demd_meta_population.1024
	}
}
yearly_global_pulse = {
	events = {
		delay = { days = 174 }
		demd_meta_population.0175
		demd_meta_population.1025
	}
}
yearly_global_pulse = {
	events = {
		delay = { days = 175 }
		demd_meta_population.0176
		demd_meta_population.1026
	}
}
yearly_global_pulse = {
	events = {
		delay = { days = 176 }
		demd_meta_population.0177
		demd_meta_population.1027
	}
}
yearly_global_pulse = {
	events = {
		delay = { days = 177 }
		demd_meta_population.0178
		demd_meta_population.1028
	}
}
yearly_global_pulse = {
	events = {
		delay = { days = 178 }
		demd_meta_population.0179
		demd_meta_population.1029
	}
}
yearly_global_pulse = {
	events = {
		delay = { days = 179 }
		demd_meta_population.0180
		demd_meta_population.1030
	}
}
yearly_global_pulse = {
	events = {
		delay = { days = 180 }
		demd_meta_population.0181
		demd_meta_population.1001
	}
}
yearly_global_pulse = {
	events = {
		delay = { days = 181 }
		demd_meta_population.0182
		demd_meta_population.1002
	}
}
yearly_global_pulse = {
	events = {
		delay = { days = 182 }
		demd_meta_population.0183
		demd_meta_population.1003
	}
}
yearly_global_pulse = {
	events = {
		delay = { days = 183 }
		demd_meta_population.0184
		demd_meta_population.1004
	}
}
yearly_global_pulse = {
	events = {
		delay = { days = 184 }
		demd_meta_population.0185
		demd_meta_population.1005
	}
}
yearly_global_pulse = {
	events = {
		delay = { days = 185 }
		demd_meta_population.0186
		demd_meta_population.1006
	}
}
yearly_global_pulse = {
	events = {
		delay = { days = 186 }
		demd_meta_population.0187
		demd_meta_population.1007
	}
}
yearly_global_pulse = {
	events = {
		delay = { days = 187 }
		demd_meta_population.0188
		demd_meta_population.1008
	}
}
yearly_global_pulse = {
	events = {
		delay = { days = 188 }
		demd_meta_population.0189
		demd_meta_population.1009
	}
}
yearly_global_pulse = {
	events = {
		delay = { days = 189 }
		demd_meta_population.0190
		demd_meta_population.1010
	}
}
yearly_global_pulse = {
	events = {
		delay = { days = 190 }
		demd_meta_population.0191
		demd_meta_population.1011
	}
}
yearly_global_pulse = {
	events = {
		delay = { days = 191 }
		demd_meta_population.0192
		demd_meta_population.1012
	}
}
yearly_global_pulse = {
	events = {
		delay = { days = 192 }
		demd_meta_population.0193
		demd_meta_population.1013
	}
}
yearly_global_pulse = {
	events = {
		delay = { days = 193 }
		demd_meta_population.0194
		demd_meta_population.1014
	}
}
yearly_global_pulse = {
	events = {
		delay = { days = 194 }
		demd_meta_population.0195
		demd_meta_population.1015
	}
}
yearly_global_pulse = {
	events = {
		delay = { days = 195 }
		demd_meta_population.0196
		demd_meta_population.1016
	}
}
yearly_global_pulse = {
	events = {
		delay = { days = 196 }
		demd_meta_population.0197
		demd_meta_population.1017
	}
}
yearly_global_pulse = {
	events = {
		delay = { days = 197 }
		demd_meta_population.0198
		demd_meta_population.1018
	}
}
yearly_global_pulse = {
	events = {
		delay = { days = 198 }
		demd_meta_population.0199
		demd_meta_population.1019
	}
}
yearly_global_pulse = {
	events = {
		delay = { days = 199 }
		demd_meta_population.0200
		demd_meta_population.1020
	}
}
yearly_global_pulse = {
	events = {
		delay = { days = 200 }
		demd_meta_population.0201
		demd_meta_population.1021
	}
}
yearly_global_pulse = {
	events = {
		delay = { days = 201 }
		demd_meta_population.0202
		demd_meta_population.1022
	}
}
yearly_global_pulse = {
	events = {
		delay = { days = 202 }
		demd_meta_population.0203
		demd_meta_population.1023
	}
}
yearly_global_pulse = {
	events = {
		delay = { days = 203 }
		demd_meta_population.0204
		demd_meta_population.1024
	}
}
yearly_global_pulse = {
	events = {
		delay = { days = 204 }
		demd_meta_population.0205
		demd_meta_population.1025
	}
}
yearly_global_pulse = {
	events = {
		delay = { days = 205 }
		demd_meta_population.0206
		demd_meta_population.1026
	}
}
yearly_global_pulse = {
	events = {
		delay = { days = 206 }
		demd_meta_population.0207
		demd_meta_population.1027
	}
}
yearly_global_pulse = {
	events = {
		delay = { days = 207 }
		demd_meta_population.0208
		demd_meta_population.1028
	}
}
yearly_global_pulse = {
	events = {
		delay = { days = 208 }
		demd_meta_population.0209
		demd_meta_population.1029
	}
}
yearly_global_pulse = {
	events = {
		delay = { days = 209 }
		demd_meta_population.0210
		demd_meta_population.1030
	}
}
yearly_global_pulse = {
	events = {
		delay = { days = 210 }
		demd_meta_population.0211
		demd_meta_population.1001
	}
}
yearly_global_pulse = {
	events = {
		delay = { days = 211 }
		demd_meta_population.0212
		demd_meta_population.1002
	}
}
yearly_global_pulse = {
	events = {
		delay = { days = 212 }
		demd_meta_population.0213
		demd_meta_population.1003
	}
}
yearly_global_pulse = {
	events = {
		delay = { days = 213 }
		demd_meta_population.0214
		demd_meta_population.1004
	}
}
yearly_global_pulse = {
	events = {
		delay = { days = 214 }
		demd_meta_population.0215
		demd_meta_population.1005
	}
}
yearly_global_pulse = {
	events = {
		delay = { days = 215 }
		demd_meta_population.0216
		demd_meta_population.1006
	}
}
yearly_global_pulse = {
	events = {
		delay = { days = 216 }
		demd_meta_population.0217
		demd_meta_population.1007
	}
}
yearly_global_pulse = {
	events = {
		delay = { days = 217 }
		demd_meta_population.0218
		demd_meta_population.1008
	}
}
yearly_global_pulse = {
	events = {
		delay = { days = 218 }
		demd_meta_population.0219
		demd_meta_population.1009
	}
}
yearly_global_pulse = {
	events = {
		delay = { days = 219 }
		demd_meta_population.0220
		demd_meta_population.1010
	}
}
yearly_global_pulse = {
	events = {
		delay = { days = 220 }
		demd_meta_population.0221
		demd_meta_population.1011
	}
}
yearly_global_pulse = {
	events = {
		delay = { days = 221 }
		demd_meta_population.0222
		demd_meta_population.1012
	}
}
yearly_global_pulse = {
	events = {
		delay = { days = 222 }
		demd_meta_population.0223
		demd_meta_population.1013
	}
}
yearly_global_pulse = {
	events = {
		delay = { days = 223 }
		demd_meta_population.0224
		demd_meta_population.1014
	}
}
yearly_global_pulse = {
	events = {
		delay = { days = 224 }
		demd_meta_population.0225
		demd_meta_population.1015
	}
}
yearly_global_pulse = {
	events = {
		delay = { days = 225 }
		demd_meta_population.0226
		demd_meta_population.1016
	}
}
yearly_global_pulse = {
	events = {
		delay = { days = 226 }
		demd_meta_population.0227
		demd_meta_population.1017
	}
}
yearly_global_pulse = {
	events = {
		delay = { days = 227 }
		demd_meta_population.0228
		demd_meta_population.1018
	}
}
yearly_global_pulse = {
	events = {
		delay = { days = 228 }
		demd_meta_population.0229
		demd_meta_population.1019
	}
}
yearly_global_pulse = {
	events = {
		delay = { days = 229 }
		demd_meta_population.0230
		demd_meta_population.1020
	}
}
yearly_global_pulse = {
	events = {
		delay = { days = 230 }
		demd_meta_population.0231
		demd_meta_population.1021
	}
}
yearly_global_pulse = {
	events = {
		delay = { days = 231 }
		demd_meta_population.0232
		demd_meta_population.1022
	}
}
yearly_global_pulse = {
	events = {
		delay = { days = 232 }
		demd_meta_population.0233
		demd_meta_population.1023
	}
}
yearly_global_pulse = {
	events = {
		delay = { days = 233 }
		demd_meta_population.0234
		demd_meta_population.1024
	}
}
yearly_global_pulse = {
	events = {
		delay = { days = 234 }
		demd_meta_population.0235
		demd_meta_population.1025
	}
}
yearly_global_pulse = {
	events = {
		delay = { days = 235 }
		demd_meta_population.0236
		demd_meta_population.1026
	}
}
yearly_global_pulse = {
	events = {
		delay = { days = 236 }
		demd_meta_population.0237
		demd_meta_population.1027
	}
}
yearly_global_pulse = {
	events = {
		delay = { days = 237 }
		demd_meta_population.0238
		demd_meta_population.1028
	}
}
yearly_global_pulse = {
	events = {
		delay = { days = 238 }
		demd_meta_population.0239
		demd_meta_population.1029
	}
}
yearly_global_pulse = {
	events = {
		delay = { days = 239 }
		demd_meta_population.0240
		demd_meta_population.1030
	}
}
yearly_global_pulse = {
	events = {
		delay = { days = 240 }
		demd_meta_population.0241
		demd_meta_population.1001
	}
}
yearly_global_pulse = {
	events = {
		delay = { days = 241 }
		demd_meta_population.0242
		demd_meta_population.1002
	}
}
yearly_global_pulse = {
	events = {
		delay = { days = 242 }
		demd_meta_population.0243
		demd_meta_population.1003
	}
}
yearly_global_pulse = {
	events = {
		delay = { days = 243 }
		demd_meta_population.0244
		demd_meta_population.1004
	}
}
yearly_global_pulse = {
	events = {
		delay = { days = 244 }
		demd_meta_population.0245
		demd_meta_population.1005
	}
}
yearly_global_pulse = {
	events = {
		delay = { days = 245 }
		demd_meta_population.0246
		demd_meta_population.1006
	}
}
yearly_global_pulse = {
	events = {
		delay = { days = 246 }
		demd_meta_population.0247
		demd_meta_population.1007
	}
}
yearly_global_pulse = {
	events = {
		delay = { days = 247 }
		demd_meta_population.0248
		demd_meta_population.1008
	}
}
yearly_global_pulse = {
	events = {
		delay = { days = 248 }
		demd_meta_population.0249
		demd_meta_population.1009
	}
}
yearly_global_pulse = {
	events = {
		delay = { days = 249 }
		demd_meta_population.0250
		demd_meta_population.1010
	}
}
yearly_global_pulse = {
	events = {
		delay = { days = 250 }
		demd_meta_population.0251
		demd_meta_population.1011
	}
}
yearly_global_pulse = {
	events = {
		delay = { days = 251 }
		demd_meta_population.0252
		demd_meta_population.1012
	}
}
yearly_global_pulse = {
	events = {
		delay = { days = 252 }
		demd_meta_population.0253
		demd_meta_population.1013
	}
}
yearly_global_pulse = {
	events = {
		delay = { days = 253 }
		demd_meta_population.0254
		demd_meta_population.1014
	}
}
yearly_global_pulse = {
	events = {
		delay = { days = 254 }
		demd_meta_population.0255
		demd_meta_population.1015
	}
}
yearly_global_pulse = {
	events = {
		delay = { days = 255 }
		demd_meta_population.0256
		demd_meta_population.1016
	}
}
yearly_global_pulse = {
	events = {
		delay = { days = 256 }
		demd_meta_population.0257
		demd_meta_population.1017
	}
}
yearly_global_pulse = {
	events = {
		delay = { days = 257 }
		demd_meta_population.0258
		demd_meta_population.1018
	}
}
yearly_global_pulse = {
	events = {
		delay = { days = 258 }
		demd_meta_population.0259
		demd_meta_population.1019
	}
}
yearly_global_pulse = {
	events = {
		delay = { days = 259 }
		demd_meta_population.0260
		demd_meta_population.1020
	}
}
yearly_global_pulse = {
	events = {
		delay = { days = 260 }
		demd_meta_population.0261
		demd_meta_population.1021
	}
}
yearly_global_pulse = {
	events = {
		delay = { days = 261 }
		demd_meta_population.0262
		demd_meta_population.1022
	}
}
yearly_global_pulse = {
	events = {
		delay = { days = 262 }
		demd_meta_population.0263
		demd_meta_population.1023
	}
}
yearly_global_pulse = {
	events = {
		delay = { days = 263 }
		demd_meta_population.0264
		demd_meta_population.1024
	}
}
yearly_global_pulse = {
	events = {
		delay = { days = 264 }
		demd_meta_population.0265
		demd_meta_population.1025
	}
}
yearly_global_pulse = {
	events = {
		delay = { days = 265 }
		demd_meta_population.0266
		demd_meta_population.1026
	}
}
yearly_global_pulse = {
	events = {
		delay = { days = 266 }
		demd_meta_population.0267
		demd_meta_population.1027
	}
}
yearly_global_pulse = {
	events = {
		delay = { days = 267 }
		demd_meta_population.0268
		demd_meta_population.1028
	}
}
yearly_global_pulse = {
	events = {
		delay = { days = 268 }
		demd_meta_population.0269
		demd_meta_population.1029
	}
}
yearly_global_pulse = {
	events = {
		delay = { days = 269 }
		demd_meta_population.0270
		demd_meta_population.1030
	}
}
yearly_global_pulse = {
	events = {
		delay = { days = 270 }
		demd_meta_population.0271
		demd_meta_population.1001
	}
}
yearly_global_pulse = {
	events = {
		delay = { days = 271 }
		demd_meta_population.0272
		demd_meta_population.1002
	}
}
yearly_global_pulse = {
	events = {
		delay = { days = 272 }
		demd_meta_population.0273
		demd_meta_population.1003
	}
}
yearly_global_pulse = {
	events = {
		delay = { days = 273 }
		demd_meta_population.0274
		demd_meta_population.1004
	}
}
yearly_global_pulse = {
	events = {
		delay = { days = 274 }
		demd_meta_population.0275
		demd_meta_population.1005
	}
}
yearly_global_pulse = {
	events = {
		delay = { days = 275 }
		demd_meta_population.0276
		demd_meta_population.1006
	}
}
yearly_global_pulse = {
	events = {
		delay = { days = 276 }
		demd_meta_population.0277
		demd_meta_population.1007
	}
}
yearly_global_pulse = {
	events = {
		delay = { days = 277 }
		demd_meta_population.0278
		demd_meta_population.1008
	}
}
yearly_global_pulse = {
	events = {
		delay = { days = 278 }
		demd_meta_population.0279
		demd_meta_population.1009
	}
}
yearly_global_pulse = {
	events = {
		delay = { days = 279 }
		demd_meta_population.0280
		demd_meta_population.1010
	}
}
yearly_global_pulse = {
	events = {
		delay = { days = 280 }
		demd_meta_population.0281
		demd_meta_population.1011
	}
}
yearly_global_pulse = {
	events = {
		delay = { days = 281 }
		demd_meta_population.0282
		demd_meta_population.1012
	}
}
yearly_global_pulse = {
	events = {
		delay = { days = 282 }
		demd_meta_population.0283
		demd_meta_population.1013
	}
}
yearly_global_pulse = {
	events = {
		delay = { days = 283 }
		demd_meta_population.0284
		demd_meta_population.1014
	}
}
yearly_global_pulse = {
	events = {
		delay = { days = 284 }
		demd_meta_population.0285
		demd_meta_population.1015
	}
}
yearly_global_pulse = {
	events = {
		delay = { days = 285 }
		demd_meta_population.0286
		demd_meta_population.1016
	}
}
yearly_global_pulse = {
	events = {
		delay = { days = 286 }
		demd_meta_population.0287
		demd_meta_population.1017
	}
}
yearly_global_pulse = {
	events = {
		delay = { days = 287 }
		demd_meta_population.0288
		demd_meta_population.1018
	}
}
yearly_global_pulse = {
	events = {
		delay = { days = 288 }
		demd_meta_population.0289
		demd_meta_population.1019
	}
}
yearly_global_pulse = {
	events = {
		delay = { days = 289 }
		demd_meta_population.0290
		demd_meta_population.1020
	}
}
yearly_global_pulse = {
	events = {
		delay = { days = 290 }
		demd_meta_population.0291
		demd_meta_population.1021
	}
}
yearly_global_pulse = {
	events = {
		delay = { days = 291 }
		demd_meta_population.0292
		demd_meta_population.1022
	}
}
yearly_global_pulse = {
	events = {
		delay = { days = 292 }
		demd_meta_population.0293
		demd_meta_population.1023
	}
}
yearly_global_pulse = {
	events = {
		delay = { days = 293 }
		demd_meta_population.0294
		demd_meta_population.1024
	}
}
yearly_global_pulse = {
	events = {
		delay = { days = 294 }
		demd_meta_population.0295
		demd_meta_population.1025
	}
}
yearly_global_pulse = {
	events = {
		delay = { days = 295 }
		demd_meta_population.0296
		demd_meta_population.1026
	}
}
yearly_global_pulse = {
	events = {
		delay = { days = 296 }
		demd_meta_population.0297
		demd_meta_population.1027
	}
}
yearly_global_pulse = {
	events = {
		delay = { days = 297 }
		demd_meta_population.0298
		demd_meta_population.1028
	}
}
yearly_global_pulse = {
	events = {
		delay = { days = 298 }
		demd_meta_population.0299
		demd_meta_population.1029
	}
}
yearly_global_pulse = {
	events = {
		delay = { days = 299 }
		demd_meta_population.0300
		demd_meta_population.1030
	}
}
yearly_global_pulse = {
	events = {
		delay = { days = 300 }
		demd_meta_population.0301
		demd_meta_population.1001
	}
}
yearly_global_pulse = {
	events = {
		delay = { days = 301 }
		demd_meta_population.0302
		demd_meta_population.1002
	}
}
yearly_global_pulse = {
	events = {
		delay = { days = 302 }
		demd_meta_population.0303
		demd_meta_population.1003
	}
}
yearly_global_pulse = {
	events = {
		delay = { days = 303 }
		demd_meta_population.0304
		demd_meta_population.1004
	}
}
yearly_global_pulse = {
	events = {
		delay = { days = 304 }
		demd_meta_population.0305
		demd_meta_population.1005
	}
}
yearly_global_pulse = {
	events = {
		delay = { days = 305 }
		demd_meta_population.0306
		demd_meta_population.1006
	}
}
yearly_global_pulse = {
	events = {
		delay = { days = 306 }
		demd_meta_population.0307
		demd_meta_population.1007
	}
}
yearly_global_pulse = {
	events = {
		delay = { days = 307 }
		demd_meta_population.0308
		demd_meta_population.1008
	}
}
yearly_global_pulse = {
	events = {
		delay = { days = 308 }
		demd_meta_population.0309
		demd_meta_population.1009
	}
}
yearly_global_pulse = {
	events = {
		delay = { days = 309 }
		demd_meta_population.0310
		demd_meta_population.1010
	}
}
yearly_global_pulse = {
	events = {
		delay = { days = 310 }
		demd_meta_population.0311
		demd_meta_population.1011
	}
}
yearly_global_pulse = {
	events = {
		delay = { days = 311 }
		demd_meta_population.0312
		demd_meta_population.1012
	}
}
yearly_global_pulse = {
	events = {
		delay = { days = 312 }
		demd_meta_population.0313
		demd_meta_population.1013
	}
}
yearly_global_pulse = {
	events = {
		delay = { days = 313 }
		demd_meta_population.0314
		demd_meta_population.1014
	}
}
yearly_global_pulse = {
	events = {
		delay = { days = 314 }
		demd_meta_population.0315
		demd_meta_population.1015
	}
}
yearly_global_pulse = {
	events = {
		delay = { days = 315 }
		demd_meta_population.0316
		demd_meta_population.1016
	}
}
yearly_global_pulse = {
	events = {
		delay = { days = 316 }
		demd_meta_population.0317
		demd_meta_population.1017
	}
}
yearly_global_pulse = {
	events = {
		delay = { days = 317 }
		demd_meta_population.0318
		demd_meta_population.1018
	}
}
yearly_global_pulse = {
	events = {
		delay = { days = 318 }
		demd_meta_population.0319
		demd_meta_population.1019
	}
}
yearly_global_pulse = {
	events = {
		delay = { days = 319 }
		demd_meta_population.0320
		demd_meta_population.1020
	}
}
yearly_global_pulse = {
	events = {
		delay = { days = 320 }
		demd_meta_population.0321
		demd_meta_population.1021
	}
}
yearly_global_pulse = {
	events = {
		delay = { days = 321 }
		demd_meta_population.0322
		demd_meta_population.1022
	}
}
yearly_global_pulse = {
	events = {
		delay = { days = 322 }
		demd_meta_population.0323
		demd_meta_population.1023
	}
}
yearly_global_pulse = {
	events = {
		delay = { days = 323 }
		demd_meta_population.0324
		demd_meta_population.1024
	}
}
yearly_global_pulse = {
	events = {
		delay = { days = 324 }
		demd_meta_population.0325
		demd_meta_population.1025
	}
}
yearly_global_pulse = {
	events = {
		delay = { days = 325 }
		demd_meta_population.0326
		demd_meta_population.1026
	}
}
yearly_global_pulse = {
	events = {
		delay = { days = 326 }
		demd_meta_population.0327
		demd_meta_population.1027
	}
}
yearly_global_pulse = {
	events = {
		delay = { days = 327 }
		demd_meta_population.0328
		demd_meta_population.1028
	}
}
yearly_global_pulse = {
	events = {
		delay = { days = 328 }
		demd_meta_population.0329
		demd_meta_population.1029
	}
}
yearly_global_pulse = {
	events = {
		delay = { days = 329 }
		demd_meta_population.0330
		demd_meta_population.1030
	}
}
yearly_global_pulse = {
	events = {
		delay = { days = 330 }
		demd_meta_population.0331
		demd_meta_population.1001
	}
}
yearly_global_pulse = {
	events = {
		delay = { days = 331 }
		demd_meta_population.0332
		demd_meta_population.1002
	}
}
yearly_global_pulse = {
	events = {
		delay = { days = 332 }
		demd_meta_population.0333
		demd_meta_population.1003
	}
}
yearly_global_pulse = {
	events = {
		delay = { days = 333 }
		demd_meta_population.0334
		demd_meta_population.1004
	}
}
yearly_global_pulse = {
	events = {
		delay = { days = 334 }
		demd_meta_population.0335
		demd_meta_population.1005
	}
}
yearly_global_pulse = {
	events = {
		delay = { days = 335 }
		demd_meta_population.0336
		demd_meta_population.1006
	}
}
yearly_global_pulse = {
	events = {
		delay = { days = 336 }
		demd_meta_population.0337
		demd_meta_population.1007
	}
}
yearly_global_pulse = {
	events = {
		delay = { days = 337 }
		demd_meta_population.0338
		demd_meta_population.1008
	}
}
yearly_global_pulse = {
	events = {
		delay = { days = 338 }
		demd_meta_population.0339
		demd_meta_population.1009
	}
}
yearly_global_pulse = {
	events = {
		delay = { days = 339 }
		demd_meta_population.0340
		demd_meta_population.1010
	}
}
yearly_global_pulse = {
	events = {
		delay = { days = 340 }
		demd_meta_population.0341
		demd_meta_population.1011
	}
}
yearly_global_pulse = {
	events = {
		delay = { days = 341 }
		demd_meta_population.0342
		demd_meta_population.1012
	}
}
yearly_global_pulse = {
	events = {
		delay = { days = 342 }
		demd_meta_population.0343
		demd_meta_population.1013
	}
}
yearly_global_pulse = {
	events = {
		delay = { days = 343 }
		demd_meta_population.0344
		demd_meta_population.1014
	}
}
yearly_global_pulse = {
	events = {
		delay = { days = 344 }
		demd_meta_population.0345
		demd_meta_population.1015
	}
}
yearly_global_pulse = {
	events = {
		delay = { days = 345 }
		demd_meta_population.0346
		demd_meta_population.1016
	}
}
yearly_global_pulse = {
	events = {
		delay = { days = 346 }
		demd_meta_population.0347
		demd_meta_population.1017
	}
}
yearly_global_pulse = {
	events = {
		delay = { days = 347 }
		demd_meta_population.0348
		demd_meta_population.1018
	}
}
yearly_global_pulse = {
	events = {
		delay = { days = 348 }
		demd_meta_population.0349
		demd_meta_population.1019
	}
}
yearly_global_pulse = {
	events = {
		delay = { days = 349 }
		demd_meta_population.0350
		demd_meta_population.1020
	}
}
yearly_global_pulse = {
	events = {
		delay = { days = 350 }
		demd_meta_population.0351
		demd_meta_population.1021
	}
}
yearly_global_pulse = {
	events = {
		delay = { days = 351 }
		demd_meta_population.0352
		demd_meta_population.1022
	}
}
yearly_global_pulse = {
	events = {
		delay = { days = 352 }
		demd_meta_population.0353
		demd_meta_population.1023
	}
}
yearly_global_pulse = {
	events = {
		delay = { days = 353 }
		demd_meta_population.0354
		demd_meta_population.1024
	}
}
yearly_global_pulse = {
	events = {
		delay = { days = 354 }
		demd_meta_population.0355
		demd_meta_population.1025
	}
}
yearly_global_pulse = {
	events = {
		delay = { days = 355 }
		demd_meta_population.0356
		demd_meta_population.1026
	}
}
yearly_global_pulse = {
	events = {
		delay = { days = 356 }
		demd_meta_population.0357
		demd_meta_population.1027
	}
}
yearly_global_pulse = {
	events = {
		delay = { days = 357 }
		demd_meta_population.0358
		demd_meta_population.1028
	}
}
yearly_global_pulse = {
	events = {
		delay = { days = 358 }
		demd_meta_population.0359
		demd_meta_population.1029
	}
}
yearly_global_pulse = {
	events = {
		delay = { days = 359 }
		demd_meta_population.0360
		demd_meta_population.1030
	}
}
yearly_global_pulse = {
	events = {
		delay = { days = 360 }
		demd_meta_population.0361
	}
}
yearly_global_pulse = {
	events = {
		delay = { days = 361 }
		demd_meta_population.0362
	}
}
yearly_global_pulse = {
	events = {
		delay = { days = 362 }
		demd_meta_population.0363
	}
}
yearly_global_pulse = {
	events = {
		delay = { days = 363 }
		demd_meta_population.0364
	}
}
yearly_global_pulse = {
	events = {
		delay = { days = 364 }
		demd_meta_population.0365
	}
}
