﻿#On actions related to health events


yearly_health_pulse = { #Fired from the birthday pulse
	on_actions = {
		#disease_outbreak_pulse # moved to a 5-year pulse in yearly_on_actions.txt
		delay = { days = { 10 30 } }
		wounded_recovery_pulse	
	}
	random_events = {
		1000 = 0
		
		#Infirm 
		10 = health.7000 # Become infirm
		10 = health.7100 # Become depressed while infirm
	}
}


#OUTBREAK
#Randomly getting a disease (not contagion, that is handled by effects applying disease)

disease_outbreak_pulse = {
	effect = {
		# Fix for rejected modifier not disappearing with pox
		if = {
			limit = {
				has_character_modifier = rejected_from_marriage_bed_modifier
				NOR = {
					has_trait = lovers_pox
					has_trait = great_pox
					has_trait = early_great_pox
				}
			}
			remove_character_modifier = rejected_from_marriage_bed_modifier
		}
		
		# Regular diseases
		if = {
			limit = { NOT = { has_character_flag = contraction_cooldown_general } }
			trigger_event = {
				on_action = demd_noncontagious_pulse
			}
			trigger_event = {
				on_action = demd_contagious_pulse
			}
		}
		
		# Chance of getting plague if current location county has a plague
		if = {
			limit = {
				exists = location
				location = {
					exists = county # in case we are at sea
					county = { has_county_modifier = plague_present }
				}
				NOT = { has_character_flag = contraction_cooldown_general }
			}
			trigger_event = {
				on_action = demd_plague_outbreak_pulse
			}
		}			
	}
}

demd_contagious_pulse = {
	random_events = {
		chance_to_happen = 10

		chance_of_no_event = {
			value = 0
			# Perk reduces chance of sickness for yourself and for Courtiers/Guests
			if = {
				limit = {
					has_perk = wash_your_hands_perk
				}
				add = 50
			}
			else_if = {
				limit = {
					exists = host
					host = { has_perk = wash_your_hands_perk }
				}
				add = 25
			}
			if = {
				limit = {
					exists = location
					location = { exists = county } # in case we are at sea 
				}
				add = {
					value = location.county.var:sanitation
					multiply = 40
				}
			}					
		}

		4000 = health.1001 	#Ill
		80 = health.1002  	#Pneumonic, x35 as common when ill
		40 = health.1004  	#Leprosy
		100 = health.1005 	#Typhus, 7x common when commander/combat character
		100 = health.1006 	#Consumption (Tuberculosis)
		75 = health.1008 	#Lover's Pox
	}
}

demd_noncontagious_pulse = {
	random_events = {
		chance_to_happen = 2
		400 = health.1001 	#Ill (added as a hedge)
		150 = health.1007 	#Cancer	
		250 = health.1003 	#Gout-ridden
	}
}

demd_plague_outbreak_pulse = {	
	random_events = {
		chance_to_happen = 50
		chance_of_no_event = {
			# Perk reduces chance of sickness for yourself and for Courtiers/Guests
			if = {
				limit = {
					has_perk = wash_your_hands_perk
				}
				value = 50
			}
			else_if = {
				limit = {
					exists = host
					host = { has_perk = wash_your_hands_perk }
				}
				value = 25
			}
			
			# If we are secluded, we get a bonus, if not we have to rely on high county sanitation
			if = {
				limit = {
					has_character_modifier = secluded_court
				}
				add = 40
			}
			else_if = {
				limit = {
					exists = host
					host = { has_character_modifier = secluded_court }
				}
				add = 40
			}
			else = {
				add = {
					value = location.county.var:sanitation
					multiply = 40
				}
			}
		}
		250 = health.1001 	#Ill
		# 2500 = health.1009 	#Great pox - anachronistic - did not exist until colombian exchange
		2500 = health.1010	#Smallpox
		200 = health.1011	#Bubonic plague (after 1346)
				
	}
}

wounded_recovery_pulse = {
	trigger = {
		OR = {
			has_trait = wounded
			has_infected_or_gangrenous_wound_trigger = yes
		}
	}
	random_events = {
		500 = 0
		300 = health.0001 #Recover from Wounded
		200 = health.0002 #Recover from Severely Wounded
		100 = health.0003 #Recover from Near Death
		150 = health.0004 #Infected wound is no longer infected
	}
}
#(Disease recovery is handled by effect applying disease)


#Triggered from the decision
commit_suicide = {
	events = { #How will you do it?
		health.6001 #Other
		health.6200 #Incapable
	}
}